{
    "Nombre del agricultor":"Adolfo Cuervo Cordoba",
    "Tipo de planta":"Frijol",
    "Nombre cientifico":"Phaseolus vulgaris",
    "Fecha de plantacion":"2020/12/18",
    "Ubicacion":[4.603097,-74.108305]

}